…
convert numberic variable to character variable

``` r
birthwt_df %>% 
  mutate (babysex = as.factor(babysex),
          frace = as.factor(frace),
          malform = as.factor (mrace),
          mrace = as.factor (mrace))  %>% 
  select(bwt, everything())
```

    ## # A tibble: 4,342 × 20
    ##      bwt babysex bhead blength delwt fincome frace gaweeks malform menarche
    ##    <dbl> <fct>   <dbl>   <dbl> <dbl>   <dbl> <fct>   <dbl> <fct>      <dbl>
    ##  1  3629 2          34      51   177      35 1        39.9 1             13
    ##  2  3062 1          34      48   156      65 2        25.9 2             14
    ##  3  3345 2          36      50   148      85 1        39.9 1             12
    ##  4  3062 1          34      52   157      55 1        40   1             14
    ##  5  3374 2          34      52   156       5 1        41.6 1             13
    ##  6  3374 1          33      52   129      55 1        40.7 1             12
    ##  7  2523 2          33      46   126      96 2        40.3 2             14
    ##  8  2778 2          33      49   140       5 1        37.4 1             12
    ##  9  3515 1          36      52   146      85 1        40.3 1             11
    ## 10  3459 1          33      50   169      75 2        40.7 2             12
    ## # ℹ 4,332 more rows
    ## # ℹ 10 more variables: mheight <dbl>, momage <dbl>, mrace <fct>, parity <dbl>,
    ## #   pnumlbw <dbl>, pnumsga <dbl>, ppbmi <dbl>, ppwt <dbl>, smoken <dbl>,
    ## #   wtgain <dbl>
…
